…
Calculate frequencies of words for these two accounts

``` r
>   frequency <- cityTweets_tidy %>% 
+     group_by(city) %>% 
+     count(word, sort = TRUE) %>% 
+     left_join(cityTweets_tidy %>% 
+                 group_by(city) %>% 
+                 summarise(total = n())) %>%
+     mutate(freq = n/total) 
>   frequency
```

    ## # A tibble: 1,765 x 5
    ## # Groups:   city [2]
    ##    city      word          n total    freq
    ##    <chr>     <chr>     <int> <int>   <dbl>
    ##  1 Sydney    city         33  1475 0.0224 
    ##  2 Sydney    sydney       28  1475 0.0190 
    ##  3 Melbourne city         16  1198 0.0134 
    ##  4 Melbourne melbourne    13  1198 0.0109 
    ##  5 Sydney    ref          12  1475 0.00814
    ##  6 Melbourne christmas    11  1198 0.00918
    ##  7 Sydney    christmas    11  1475 0.00746
    ##  8 Sydney    nsw          11  1475 0.00746
    ##  9 Sydney    team         11  1475 0.00746
    ## 10 Sydney    transport    10  1475 0.00678
    ## # ... with 1,755 more rows

Let's make the table more readable

``` r
>   frequency <- frequency %>% 
+     select(city, word, freq) %>% 
+     spread(city, freq) %>%
+     arrange(Melbourne, Sydney)
>   
>   frequency
```

    ## # A tibble: 1,593 x 3
    ##    word       Melbourne   Sydney
    ##    <chr>          <dbl>    <dbl>
    ##  1 access      0.000835 0.000678
    ##  2 activated   0.000835 0.000678
    ##  3 australian  0.000835 0.000678
    ##  4 awards      0.000835 0.000678
    ##  5 beautiful   0.000835 0.000678
    ##  6 beginning   0.000835 0.000678
    ##  7 begins      0.000835 0.000678
    ##  8 bins        0.000835 0.000678
    ##  9 care        0.000835 0.000678
    ## 10 catch       0.000835 0.000678
    ## # ... with 1,583 more rows
…
